{
  "name": "express-postgres",
  "version": "1.0.0",
  "description": "",
  "sampleUrl": false,
  "defaultVersion": "0.0.0",
  "apidoc": "0.3.0",
  "generator": {
    "name": "apidoc",
    "time": "2021-06-02T06:28:26.728Z",
    "url": "https://apidocjs.com",
    "version": "0.28.1"
  }
}
